{
  "Attack": {
    "LaserBeam": {
      "lifetime": 500,
      "length": 200.0,
      "damage": 35
    },
    "Bomb": {
      "damage": 80,
      "collision_radius": 20.0
    },
    "AntiAircraftMissile": {
      "speed": 85.0,
      "rotate_speed": 1.0,
      "seek_time": 1500,
      "lifetime": 3000,
      "damage": 20,
      "collision_radius": 10.0
    },
    "ArtilleryRocket": {
      "speed": 160.0,
      "damage": 30,
      "collision_radius": 20.0
    },
    "Shell": {
      "length": 5.0,
      "speed": 200.0,
      "lifetime": 1600,
      "damage": 33
    }
  },
  "Building": {
    "Artillery": {
      "minerals_build_cost": 150,
      "terrazine_build_cost": 0,
      "collision_radius": 7.5,
      "max_health": 200,
      "attack_cooldown": 800,
      "sight_distance": 350.0,
      "rotate_speed": 1.0,
      "target_reset_time": 3500,
      "target_types": [
        "Ground"
      ],
      "attack": "Shell"
    },
    "Railgun": {
      "minerals_build_cost": 150,
      "terrazine_build_cost": 0,
      "collision_radius": 7.5,
      "max_health": 250,
      "attack_cooldown": 1500,
      "sight_distance": 200.0,
      "rotate_speed": 3.0,
      "target_types": [
        "Air"
      ],
      "attack": "LaserBeam"
    },
    "SAM": {
      "minerals_build_cost": 150,
      "terrazine_build_cost": 0,
      "collision_radius": 7.5,
      "max_health": 200,
      "attack_cooldown": 700,
      "sight_distance": 200.0,
      "rotate_speed": 1.0,
      "target_reset_time": 3500,
      "target_types": [
        "Air"
      ],
      "attack": "Missile"
    },
    "HQ": {
      "minerals_build_cost": 150,
      "terrazine_build_cost": 0,
      "collision_radius": 15.0,
      "max_health": 1000,
      "resource_cooldown": 1000,
      "resource_amount": 5
    },
    "MineralsExtractor": {
      "minerals_build_cost": 50,
      "terrazine_build_cost": 0,
      "collision_radius": 10.0,
      "max_health": 250,
      "resource_cooldown": 4000,
      "resource_amount": 5
    },
    "TerrazineRefinery": {
      "minerals_build_cost": 75,
      "terrazine_build_cost": 0,
      "collision_radius": 10.0,
      "max_health": 250,
      "resource_cooldown": 4000,
      "resource_amount": 5
    },
    "BomberAirfield": {
      "minerals_build_cost": 175,
      "terrazine_build_cost": 0,
      "collision_radius": 20.0,
      "max_health": 500,
      "spawn_cooldown": 18000,
      "unit_type": "BomberPlane"
    },
    "FighterAirfield": {
      "minerals_build_cost": 125,
      "terrazine_build_cost": 0,
      "collision_radius": 19.0,
      "max_health": 350,
      "spawn_cooldown": 17000,
      "unit_type": "FighterPlane"
    },
    "TankFactory": {
      "minerals_build_cost": 125,
      "terrazine_build_cost": 0,
      "collision_radius": 11.0,
      "max_health": 500,
      "spawn_cooldown": 15000,
      "unit_type": "Tank"
    },
    "AirshipFactory": {
      "minerals_build_cost": 225,
      "terrazine_build_cost": 0,
      "collision_radius": 11.0,
      "max_health": 500,
      "spawn_cooldown": 40000,
      "unit_type": "Airship"
    },
    "LightTankFactory": {
      "minerals_build_cost": 175,
      "terrazine_build_cost": 0,
      "collision_radius": 11.0,
      "max_health": 500,
      "spawn_cooldown": 16000,
      "unit_type": "LightTank"
    }
  },
  "Unit": {
    "BomberPlane": {
      "speed": 35.0,
      "rotate_speed": 1.0,
      "max_health": 150,
      "collision_radius": 12.0,
      "sight_distance": 300.0,
      "cone_of_view": 1.85,
      "attack_cooldown": 5000,
      "target_reset_time": 5000,
      "bomb_drop_distance": 60.0,
      "target_types": [
        "Building",
        "Ground"
      ],
      "attack": "Bomb"
    },
    "Airship": {
      "speed": 12.0,
      "rotate_speed": 0.2,
      "max_health": 500,
      "regen_rate": 25,
      "collision_radius": 19.0,
      "sight_distance": 300.0,
      "cone_of_view": 1.85,
      "attack_cooldown": 500,
      "target_reset_time": 5000,
      "bomb_drop_distance": 20.0,
      "target_types": [
        "Building"
      ],
      "attack": "Bomb"
    },
    "FighterPlane": {
      "speed": 45.0,
      "rotate_speed": 1.25,
      "max_health": 75,
      "collision_radius": 10.0,
      "sight_distance": 200.0,
      "cone_of_view": 2.0,
      "attack_cooldown": 2000,
      "target_reset_time": 5000,
      "target_types": [
        "Air"
      ],
      "attack": "Missile"
    },
    "Tank": {
      "speed": 22.0,
      "rotate_speed": 1.55,
      "max_health": 210,
      "collision_radius": 8.0,
      "sight_distance": 200.0,
      "cone_of_view": 4.6,
      "attack_cooldown": 2000,
      "target_reset_time": 3500,
      "target_types": [
        "Ground",
        "Building"
      ],
      "attack": "Shell"
    },
    "LightTank": {
      "speed": 22.0,
      "rotate_speed": 1.55,
      "max_health": 70,
      "collision_radius": 6.0,
      "sight_distance": 220.0,
      "cone_of_view": 4.6,
      "attack_cooldown": 1000,
      "target_reset_time": 3500,
      "target_types": [
        "Ground"
      ],
      "attack": "Shell"
    }
  },
  "Misc": {
    "Explosion": {
      "explosion_radius": 20.0,
      "lifetime": 200
    },
    "TankTurret": {},
    "LightTankTurret": {},
    "SAMTurret": {},
    "RailgunTurret": {},
    "ArtilleryTurret": {}
  }
}
